Week5
…
raw_html <- read_html("https://bkm.com.tr/secilen-aya-ait-sektorel-gelisim/?filter_year=2018&filter_month=1&List=Listele")
raw_html

## {xml_document}
## <html lang="tr-TR">
## [1] <head>\n<meta http-equiv="Content-Type" content="text/html; charset= ...
## [2] <body>\n    <div id="anaKapsul">\n                <table width="735" ...

html_tables <- raw_html %>% html_table(fill = TRUE)
raw_df <- html_tables[[4]]
raw_df <- html_tables[[4]] %>% tbl_df()
raw_df

## # A tibble: 29 x 5
##    X1             X2          X3         X4               X5               
##    <chr>          <chr>       <chr>      <chr>            <chr>            
##  1 yeri Grubu   lem Adedi lem Ade lem Tutar (M lem Tutar (Mi
##  2 yeri Grubu   lem Aded lem Ade "lem Tutar \ "lem Tutar \n
##  3 ARABA KRALAMA 292.290     57.920     158,36           12,48            
##  4 ARA KRALAMA 2.725.497   540.511    1.920,41         100,50           
##  5 BENZN VE YAK 25.260.026  8.000.259  4.641,49         567,45           
##  6 BIREYSEL EMEK 2.582.916   527        667,90           0,19             
##  7 ETL GIDA   24.041.009  12.196.630 3.483,63         477,84           
##  8 DORUDAN PAZA 973.180     24.216     719,08           5,66             
##  9 ETM / KIRT 5.368.531   2.203.468  1.444,43         153,74           
## 10 ELEKTRK-ELEK 7.016.143   1.933.429  2.984,89         298,30           
## #  with 19 more rows

raw_df %>% slice(-(1:2)) %>% filter(X1 !="TOPLAM")

## # A tibble: 26 x 5
##    X1                                   X2         X3         X4      X5   
##    <chr>                                <chr>      <chr>      <chr>   <chr>
##  1 ARABA KRALAMA                       292.290    57.920     158,36  12,48
##  2 ARA KRALAMA-SATI/SERVS/YEDEK PA 2.725.497  540.511    1.920, 100,
##  3 BENZN VE YAKIT STASYONLARI         25.260.026 8.000.259  4.641, 567,
##  4 BIREYSEL EMEKLILIK                   2.582.916  527        667,90  0,19 
##  5 ETL GIDA                         24.041.009 12.196.630 3.483, 477,
##  6 DORUDAN PAZARLAMA                   973.180    24.216     719,08  5,66 
##  7 ETM / KIRTASYE / OFS MALZEMELE 5.368.531  2.203.468  1.444, 153,
##  8 ELEKTRK-ELEKTRONK EYA, BLGSAYAR 7.016.143  1.933.429  2.984, 298,
##  9 GYM VE AKSESUAR                    25.171.042 8.781.408  3.893, 870,
## 10 HAVAYOLLARI                          1.974.862  347.591    1.013, 267,
## #  with 16 more rows

raw_df %>% slice(-(1:2)) %>% filter(X1 !="TOPLAM") %>% mutate(X2_new = gsub("\\.","",X2))

## # A tibble: 26 x 6
##    X1                             X2        X3        X4      X5    X2_new 
##    <chr>                          <chr>     <chr>     <chr>   <chr> <chr>  
##  1 ARABA KRALAMA                 292.290   57.920    158,36  12,48 292290 
##  2 ARA KRALAMA-SATI/SERVS/YE 2.725.497 540.511   1.920, 100, 2725497
##  3 BENZN VE YAKIT STASYONLARI   25.260.0 8.000.259 4.641, 567, 252600
##  4 BIREYSEL EMEKLILIK             2.582.916 527       667,90  0,19  2582916
##  5 ETL GIDA                   24.041.0 12.196.6 3.483, 477, 240410
##  6 DORUDAN PAZARLAMA             973.180   24.216    719,08  5,66  973180 
##  7 ETM / KIRTASYE / OFS MAL 5.368.531 2.203.468 1.444, 153, 5368531
##  8 ELEKTRK-ELEKTRONK EYA, BL 7.016.143 1.933.429 2.984, 298, 7016143
##  9 GYM VE AKSESUAR              25.171.0 8.781.408 3.893, 870, 251710
## 10 HAVAYOLLARI                    1.974.862 347.591   1.013, 267, 1974862
## #  with 16 more rows

raw_df %>% slice(-(1:2)) %>% filter(X1 !="TOPLAM") %>% mutate_at(vars(X2:X5), funs(gsub("\\.","",.)))

## Warning: funs() is soft deprecated as of dplyr 0.8.0
## please use list() instead
## 
## # Before:
## funs(name = f(.)
## 
## # After: 
## list(name = ~f(.))
## This warning is displayed once per session.

## # A tibble: 26 x 5
##    X1                                     X2       X3       X4      X5    
##    <chr>                                  <chr>    <chr>    <chr>   <chr> 
##  1 ARABA KRALAMA                         292290   57920    158,36  12,48 
##  2 ARA KRALAMA-SATI/SERVS/YEDEK PARA 2725497  540511   1920,41 100,50
##  3 BENZN VE YAKIT STASYONLARI           25260026 8000259  4641,49 567,45
##  4 BIREYSEL EMEKLILIK                     2582916  527      667,90  0,19  
##  5 ETL GIDA                           24041009 12196630 3483,63 477,84
##  6 DORUDAN PAZARLAMA                     973180   24216    719,08  5,66  
##  7 ETM / KIRTASYE / OFS MALZEMELER  5368531  2203468  1444,43 153,74
##  8 ELEKTRK-ELEKTRONK EYA, BLGSAYAR   7016143  1933429  2984,89 298,30
##  9 GYM VE AKSESUAR                      25171042 8781408  3893,09 870,49
## 10 HAVAYOLLARI                            1974862  347591   1013,06 267,60
## #  with 16 more rows

raw_df %>% slice(-(1:2)) %>% filter(X1 !="TOPLAM") %>% mutate_at(vars(X2:X5), funs(gsub("\\.","",.))) %>% mutate_at(vars(X2:X5),funs(as.numeric(gsub(",","\\.",.))))

## # A tibble: 26 x 5
##    X1                                           X2       X3    X4     X5
##    <chr>                                     <dbl>    <dbl> <dbl>  <dbl>
##  1 ARABA KRALAMA                           292290    57920  158.  12.5 
##  2 ARA KRALAMA-SATI/SERVS/YEDEK PARA  2725497   540511 1920. 100.  
##  3 BENZN VE YAKIT STASYONLARI           25260026  8000259 4641. 567.  
##  4 BIREYSEL EMEKLILIK                      2582916      527  668.   0.19
##  5 ETL GIDA                           24041009 12196630 3484. 478.  
##  6 DORUDAN PAZARLAMA                       973180    24216  719.   5.66
##  7 ETM / KIRTASYE / OFS MALZEMELER   5368531  2203468 1444. 154.  
##  8 ELEKTRK-ELEKTRONK EYA, BLGSAYAR    7016143  1933429 2985. 298.  
##  9 GYM VE AKSESUAR                      25171042  8781408 3893. 870.  
## 10 HAVAYOLLARI                             1974862   347591 1013. 268.  
## #  with 16 more rows

cards_df <- raw_df %>% slice(-(1:2)) %>% filter(X1 !="TOPLAM") %>% mutate_at(vars(X2:X5), funs(gsub("\\.","",.))) %>% mutate_at(vars(X2:X5),funs(as.numeric(gsub(",","\\.",.))))
cards_df

## # A tibble: 26 x 5
##    X1                                           X2       X3    X4     X5
##    <chr>                                     <dbl>    <dbl> <dbl>  <dbl>
##  1 ARABA KRALAMA                           292290    57920  158.  12.5 
##  2 ARA KRALAMA-SATI/SERVS/YEDEK PARA  2725497   540511 1920. 100.  
##  3 BENZN VE YAKIT STASYONLARI           25260026  8000259 4641. 567.  
##  4 BIREYSEL EMEKLILIK                      2582916      527  668.   0.19
##  5 ETL GIDA                           24041009 12196630 3484. 478.  
##  6 DORUDAN PAZARLAMA                       973180    24216  719.   5.66
##  7 ETM / KIRTASYE / OFS MALZEMELER   5368531  2203468 1444. 154.  
##  8 ELEKTRK-ELEKTRONK EYA, BLGSAYAR    7016143  1933429 2985. 298.  
##  9 GYM VE AKSESUAR                      25171042  8781408 3893. 870.  
## 10 HAVAYOLLARI                             1974862   347591 1013. 268.  
## #  with 16 more rows

colnames(cards_df) <- c("tur", "kk_ia", "bk_ia", "kk_it", "bk_it")
cards_df

## # A tibble: 26 x 5
##    tur                                       kk_ia    bk_ia kk_it  bk_it
##    <chr>                                     <dbl>    <dbl> <dbl>  <dbl>
##  1 ARABA KRALAMA                           292290    57920  158.  12.5 
##  2 ARA KRALAMA-SATI/SERVS/YEDEK PARA  2725497   540511 1920. 100.  
##  3 BENZN VE YAKIT STASYONLARI           25260026  8000259 4641. 567.  
##  4 BIREYSEL EMEKLILIK                      2582916      527  668.   0.19
##  5 ETL GIDA                           24041009 12196630 3484. 478.  
##  6 DORUDAN PAZARLAMA                       973180    24216  719.   5.66
##  7 ETM / KIRTASYE / OFS MALZEMELER   5368531  2203468 1444. 154.  
##  8 ELEKTRK-ELEKTRONK EYA, BLGSAYAR    7016143  1933429 2985. 298.  
##  9 GYM VE AKSESUAR                      25171042  8781408 3893. 870.  
## 10 HAVAYOLLARI                             1974862   347591 1013. 268.  
## #  with 16 more rows
…
